%YAML 1.1
%TAG !u! tag:unity3d.com,2011:
--- !u!1001 &5814936060357857735
PrefabInstance:
  m_ObjectHideFlags: 0
  serializedVersion: 2
  m_Modification:
    m_TransformParent: {fileID: 0}
    m_Modifications:
    - target: {fileID: 1659702827536161635, guid: 09dea75e54dd0a54e9a268b037770cab,
        type: 3}
      propertyPath: m_Name
      value: Enemy_A3
      objectReference: {fileID: 0}
    - target: {fileID: 8500657836668214545, guid: 09dea75e54dd0a54e9a268b037770cab,
        type: 3}
      propertyPath: m_LocalPosition.x
      value: 0
      objectReference: {fileID: 0}
    - target: {fileID: 8500657836668214545, guid: 09dea75e54dd0a54e9a268b037770cab,
        type: 3}
      propertyPath: m_LocalPosition.y
      value: 0
      objectReference: {fileID: 0}
    - target: {fileID: 8500657836668214545, guid: 09dea75e54dd0a54e9a268b037770cab,
        type: 3}
      propertyPath: m_LocalPosition.z
      value: 0
      objectReference: {fileID: 0}
    - target: {fileID: 8500657836668214545, guid: 09dea75e54dd0a54e9a268b037770cab,
        type: 3}
      propertyPath: m_LocalRotation.x
      value: 0
      objectReference: {fileID: 0}
    - target: {fileID: 8500657836668214545, guid: 09dea75e54dd0a54e9a268b037770cab,
        type: 3}
      propertyPath: m_LocalRotation.y
      value: 0
      objectReference: {fileID: 0}
    - target: {fileID: 8500657836668214545, guid: 09dea75e54dd0a54e9a268b037770cab,
        type: 3}
      propertyPath: m_LocalRotation.z
      value: 0
      objectReference: {fileID: 0}
    - target: {fileID: 8500657836668214545, guid: 09dea75e54dd0a54e9a268b037770cab,
        type: 3}
      propertyPath: m_LocalRotation.w
      value: 1
      objectReference: {fileID: 0}
    - target: {fileID: 8500657836668214545, guid: 09dea75e54dd0a54e9a268b037770cab,
        type: 3}
      propertyPath: m_RootOrder
      value: 0
      objectReference: {fileID: 0}
    - target: {fileID: 8500657836668214545, guid: 09dea75e54dd0a54e9a268b037770cab,
        type: 3}
      propertyPath: m_LocalEulerAnglesHint.x
      value: 0
      objectReference: {fileID: 0}
    - target: {fileID: 8500657836668214545, guid: 09dea75e54dd0a54e9a268b037770cab,
        type: 3}
      propertyPath: m_LocalEulerAnglesHint.y
      value: 0
      objectReference: {fileID: 0}
    - target: {fileID: 8500657836668214545, guid: 09dea75e54dd0a54e9a268b037770cab,
        type: 3}
      propertyPath: m_LocalEulerAnglesHint.z
      value: 0
      objectReference: {fileID: 0}
    - target: {fileID: 3387723292295114685, guid: 09dea75e54dd0a54e9a268b037770cab,
        type: 3}
      propertyPath: moveSpeed
      value: 8
      objectReference: {fileID: 0}
    - target: {fileID: 3387723292295114685, guid: 09dea75e54dd0a54e9a268b037770cab,
        type: 3}
      propertyPath: bulletTimerMax
      value: 10
      objectReference: {fileID: 0}
    - target: {fileID: 3387723292295114685, guid: 09dea75e54dd0a54e9a268b037770cab,
        type: 3}
      propertyPath: rawSocre
      value: 5000
      objectReference: {fileID: 0}
    m_RemovedComponents: []
  m_SourcePrefab: {fileID: 100100000, guid: 09dea75e54dd0a54e9a268b037770cab, type: 3}
