%YAML 1.1
%TAG !u! tag:unity3d.com,2011:
--- !u!1045 &1
EditorBuildSettings:
  m_ObjectHideFlags: 0
  serializedVersion: 2
  m_Scenes:
  - enabled: 1
    path: Assets/Scenes/CI.unity
    guid: d61510540cf52ae449881f86e3f8b295
  - enabled: 1
    path: Assets/Scenes/Title.unity
    guid: a53b50c155424c540a774f671be474a6
  - enabled: 1
    path: Assets/Scenes/EndlessMode.unity
    guid: ae355574e5472c64fb180d5b51b8a31d
  - enabled: 1
    path: Assets/Scenes/Option.unity
    guid: 9ab62f17e5a8b2b42982ee75685aead8
  - enabled: 1
    path: Assets/Scenes/Credit.unity
    guid: 11f1f22691f36e243af81b0d705d7d32
  - enabled: 1
    path: Assets/Scenes/ScoreRanking.unity
    guid: 430dbebb1efc6e3439bcd41b5717e1be
  - enabled: 1
    path: Assets/Scenes/Demo01.unity
    guid: e77d4514158df7844913bb01e31906f2
  - enabled: 1
    path: Assets/Scenes/Demo02.unity
    guid: e88d624895a625546b28386fdb3cc557
  - enabled: 1
    path: Assets/Scenes/Demo03.unity
    guid: 4bfb2c4b4c8cc594baa21bca38ddebaa
  - enabled: 1
    path: Assets/Scenes/Demo04.unity
    guid: e27bc08e383d1e24b9b28875cd9296fe
  - enabled: 1
    path: Assets/Scenes/Demo05.unity
    guid: d524fb363b6b6744bb84c8e8f23217da
  - enabled: 1
    path: Assets/Scenes/Demo06.unity
    guid: b9e758c943eed8949b9fa4511786b644
  m_configObjects: {}
