%YAML 1.1
%TAG !u! tag:unity3d.com,2011:
--- !u!1 &2102529596699398391
GameObject:
  m_ObjectHideFlags: 0
  m_CorrespondingSourceObject: {fileID: 0}
  m_PrefabInstance: {fileID: 0}
  m_PrefabAsset: {fileID: 0}
  serializedVersion: 6
  m_Component:
  - component: {fileID: 2102529596699398390}
  - component: {fileID: 2102529596699398389}
  m_Layer: 0
  m_Name: Wave500
  m_TagString: Untagged
  m_Icon: {fileID: 0}
  m_NavMeshLayer: 0
  m_StaticEditorFlags: 0
  m_IsActive: 1
--- !u!4 &2102529596699398390
Transform:
  m_ObjectHideFlags: 0
  m_CorrespondingSourceObject: {fileID: 0}
  m_PrefabInstance: {fileID: 0}
  m_PrefabAsset: {fileID: 0}
  m_GameObject: {fileID: 2102529596699398391}
  m_LocalRotation: {x: 0, y: 0, z: 0, w: 1}
  m_LocalPosition: {x: 0, y: 0, z: 0}
  m_LocalScale: {x: 1, y: 1, z: 1}
  m_Children: []
  m_Father: {fileID: 0}
  m_RootOrder: 0
  m_LocalEulerAnglesHint: {x: 0, y: 0, z: 0}
--- !u!114 &2102529596699398389
MonoBehaviour:
  m_ObjectHideFlags: 0
  m_CorrespondingSourceObject: {fileID: 0}
  m_PrefabInstance: {fileID: 0}
  m_PrefabAsset: {fileID: 0}
  m_GameObject: {fileID: 2102529596699398391}
  m_Enabled: 1
  m_EditorHideFlags: 0
  m_Script: {fileID: 11500000, guid: 482bdb21e5173084bac13f1dd98d420f, type: 3}
  m_Name: 
  m_EditorClassIdentifier: 
  gameKeeper: {fileID: 0}
  multiballGenerator: {fileID: 0}
  waveText: {fileID: 4494410862282780083, guid: 75359719342eff84ca610be16f7de35a,
    type: 3}
  spawnEffect: {fileID: 5306860362613338177, guid: 18278aa484aafa241a6dfa32480bffc0,
    type: 3}
  waveCount: 500
  enemyObject:
  - {fileID: 5168653959136299684, guid: 7e666bf1ef6de3f4f9a177fcf6349029, type: 3}
  - {fileID: 6110968970380761601, guid: 5e0cf6d434add9d45b4b77721665f3c3, type: 3}
  - {fileID: 9102826462500091812, guid: 6b2e8ee08a0918048b01aae608293ba0, type: 3}
  - {fileID: 2407892580689951929, guid: 1a7bb89e2b49b24428da9df3d6f82217, type: 3}
  - {fileID: 6373141956399021569, guid: c0b63cf666b1d704eb90d0aa3b02bbd5, type: 3}
  randomPositionXMin: -30
  randomPositionXMax: 30
  randomPositionZMin: 35
  randomPositionZMax: 60
  spawnTimer: 0
  spawnTimerMin: 0.05
  spawnTimerMax: 0.3
  spawnTimerCache: 0
  waveTime: 15
  posX: 0
  posZ: 0
  targetObjectType: 0
  targetObjectTypeMin: 0
  targetObjectTypeMax: 101
  enemyATypeMin: 0
  enemyATypeMax: 30
  enemyBTypeMin: 31
  enemyBTypeMax: 50
  enemyCTypeMin: 51
  enemyCTypeMax: 80
  enemyDTypeMin: 81
  enemyDTypeMax: 95
  enemyETypeMin: 96
  enemyETypeMax: 99
  multiballTypeMin: 100
  multiballTypeMax: 101
  randomSpawnFlag: 0
