%YAML 1.1
%TAG !u! tag:unity3d.com,2011:
--- !u!1 &2854651475198948235
GameObject:
  m_ObjectHideFlags: 0
  m_CorrespondingSourceObject: {fileID: 0}
  m_PrefabInstance: {fileID: 0}
  m_PrefabAsset: {fileID: 0}
  serializedVersion: 6
  m_Component:
  - component: {fileID: 6173218123172962616}
  - component: {fileID: 4718941904954143846}
  m_Layer: 0
  m_Name: Wave7
  m_TagString: Untagged
  m_Icon: {fileID: 0}
  m_NavMeshLayer: 0
  m_StaticEditorFlags: 0
  m_IsActive: 1
--- !u!4 &6173218123172962616
Transform:
  m_ObjectHideFlags: 0
  m_CorrespondingSourceObject: {fileID: 0}
  m_PrefabInstance: {fileID: 0}
  m_PrefabAsset: {fileID: 0}
  m_GameObject: {fileID: 2854651475198948235}
  m_LocalRotation: {x: 0, y: 0, z: 0, w: 1}
  m_LocalPosition: {x: 0, y: 0, z: 0}
  m_LocalScale: {x: 1, y: 1, z: 1}
  m_Children: []
  m_Father: {fileID: 0}
  m_RootOrder: 0
  m_LocalEulerAnglesHint: {x: 0, y: 0, z: 0}
--- !u!114 &4718941904954143846
MonoBehaviour:
  m_ObjectHideFlags: 0
  m_CorrespondingSourceObject: {fileID: 0}
  m_PrefabInstance: {fileID: 0}
  m_PrefabAsset: {fileID: 0}
  m_GameObject: {fileID: 2854651475198948235}
  m_Enabled: 1
  m_EditorHideFlags: 0
  m_Script: {fileID: 11500000, guid: 482bdb21e5173084bac13f1dd98d420f, type: 3}
  m_Name: 
  m_EditorClassIdentifier: 
  gameKeeper: {fileID: 0}
  multiballGenerator: {fileID: 0}
  waveText: {fileID: 4494410862282780083, guid: 9910cd32bc04faa44ac9ca28614f3114,
    type: 3}
  spawnEffect: {fileID: 5306860362613338177, guid: 18278aa484aafa241a6dfa32480bffc0,
    type: 3}
  waveCount: 7
  enemyObject:
  - {fileID: 1659702827536161635, guid: 09dea75e54dd0a54e9a268b037770cab, type: 3}
  - {fileID: 1659702827536161635, guid: f0d677abdffcb2044b5266f976345ebb, type: 3}
  - {fileID: 1659702827536161635, guid: e4137e830ee57914c8d835393ea6087a, type: 3}
  - {fileID: 1659702827536161635, guid: cd87ca92731f81940bbfaebab6d82946, type: 3}
  - {fileID: 1659702827536161635, guid: e5677c633fe431349b3548d52e966d9c, type: 3}
  randomPositionXMin: -30
  randomPositionXMax: 30
  randomPositionZMin: 35
  randomPositionZMax: 60
  spawnTimer: 0
  spawnTimerMin: 0.1
  spawnTimerMax: 0.8
  spawnTimerCache: 0
  waveTime: 15
  posX: 0
  posZ: 0
  targetObjectType: 0
  targetObjectTypeMin: 0
  targetObjectTypeMax: 101
  enemyATypeMin: -4
  enemyATypeMax: -3
  enemyBTypeMin: -2
  enemyBTypeMax: -1
  enemyCTypeMin: 0
  enemyCTypeMax: 50
  enemyDTypeMin: 51
  enemyDTypeMax: 90
  enemyETypeMin: 91
  enemyETypeMax: 99
  multiballTypeMin: 100
  multiballTypeMax: 101
  randomSpawnFlag: 0
