%YAML 1.1
%TAG !u! tag:unity3d.com,2011:
--- !u!1 &439829086102662127
GameObject:
  m_ObjectHideFlags: 0
  m_CorrespondingSourceObject: {fileID: 0}
  m_PrefabInstance: {fileID: 0}
  m_PrefabAsset: {fileID: 0}
  serializedVersion: 6
  m_Component:
  - component: {fileID: 8502973202325523985}
  - component: {fileID: 8736611771203921157}
  m_Layer: 0
  m_Name: Wave2
  m_TagString: Untagged
  m_Icon: {fileID: 0}
  m_NavMeshLayer: 0
  m_StaticEditorFlags: 0
  m_IsActive: 1
--- !u!4 &8502973202325523985
Transform:
  m_ObjectHideFlags: 0
  m_CorrespondingSourceObject: {fileID: 0}
  m_PrefabInstance: {fileID: 0}
  m_PrefabAsset: {fileID: 0}
  m_GameObject: {fileID: 439829086102662127}
  m_LocalRotation: {x: 0, y: 0, z: 0, w: 1}
  m_LocalPosition: {x: 0, y: 0, z: 0}
  m_LocalScale: {x: 1, y: 1, z: 1}
  m_Children: []
  m_Father: {fileID: 0}
  m_RootOrder: 0
  m_LocalEulerAnglesHint: {x: 0, y: 0, z: 0}
--- !u!114 &8736611771203921157
MonoBehaviour:
  m_ObjectHideFlags: 0
  m_CorrespondingSourceObject: {fileID: 0}
  m_PrefabInstance: {fileID: 0}
  m_PrefabAsset: {fileID: 0}
  m_GameObject: {fileID: 439829086102662127}
  m_Enabled: 1
  m_EditorHideFlags: 0
  m_Script: {fileID: 11500000, guid: 482bdb21e5173084bac13f1dd98d420f, type: 3}
  m_Name: 
  m_EditorClassIdentifier: 
  gameKeeper: {fileID: 0}
  multiballGenerator: {fileID: 0}
  waveText: {fileID: 4494410862282780083, guid: 9910cd32bc04faa44ac9ca28614f3114,
    type: 3}
  spawnEffect: {fileID: 5306860362613338177, guid: 18278aa484aafa241a6dfa32480bffc0,
    type: 3}
  waveCount: 2
  enemyObject:
  - {fileID: 1659702827536161635, guid: 09dea75e54dd0a54e9a268b037770cab, type: 3}
  - {fileID: 1659702827536161635, guid: 09dea75e54dd0a54e9a268b037770cab, type: 3}
  - {fileID: 1659702827536161635, guid: 09dea75e54dd0a54e9a268b037770cab, type: 3}
  - {fileID: 1659702827536161635, guid: f0d677abdffcb2044b5266f976345ebb, type: 3}
  - {fileID: 1659702827536161635, guid: f0d677abdffcb2044b5266f976345ebb, type: 3}
  randomPositionXMin: -30
  randomPositionXMax: 30
  randomPositionZMin: 35
  randomPositionZMax: 60
  spawnTimer: 0
  spawnTimerMin: 0.2
  spawnTimerMax: 2
  spawnTimerCache: 0
  waveTime: 30
  posX: 0
  posZ: 0
  targetObjectType: 0
  targetObjectTypeMin: 0
  targetObjectTypeMax: 6
  enemyATypeMin: 1
  enemyATypeMax: 1
  enemyBTypeMin: 2
  enemyBTypeMax: 2
  enemyCTypeMin: 3
  enemyCTypeMax: 3
  enemyDTypeMin: 4
  enemyDTypeMax: 4
  enemyETypeMin: 5
  enemyETypeMax: 5
  multiballTypeMin: 6
  multiballTypeMax: 6
  randomSpawnFlag: 0
